{
    "packages": [
        {
            "author": "Rado Videnov",
            "homepage": "https://radovid.eu/decipherlime",
            "name": "DecipherLib",
            "releases": [
                {
                    "url": "https://radovid.eu/decipherlime/packages/DecipherLib-1.29.0.zip",
                    "platforms": [
                        "*"
                    ],
                    "version": "1.29.0",
                    "sublime_text": "*",
                    "dependencies": [
                        "mdpopups"
                    ],
                    "date": "2024-12-06 10:14:14"
                },
                {
                    "url": "https://radovid.eu/decipherlime/packages/DecipherLib-1.29.3.zip",
                    "platforms": [
                        "*"
                    ],
                    "version": "1.29.3",
                    "sublime_text": "*",
                    "dependencies": [
                        "mdpopups"
                    ],
                    "date": "2024-12-10 08:03:22"
                },
                {
                    "url": "https://radovid.eu/decipherlime/packages/DecipherLib-1.29.5.zip",
                    "platforms": [
                        "*"
                    ],
                    "version": "1.29.5",
                    "sublime_text": "*",
                    "dependencies": [
                        "mdpopups"
                    ],
                    "date": "2024-12-11 03:18:22"
                },
                {
                    "platforms": [
                        "*"
                    ],
                    "sublime_text": "*",
                    "version": "1.29.6",
                    "url": "https://radovid.eu/decipherlime/packages/DecipherLib-1.29.6.zip",
                    "date": "2024-12-18 13:57:57",
                    "dependencies": [
                        "mdpopups"
                    ]
                },
                {
                    "platforms": [
                        "*"
                    ],
                    "sublime_text": "*",
                    "version": "1.29.7",
                    "url": "https://radovid.eu/decipherlime/packages/DecipherLib-1.29.7.zip",
                    "date": "2024-12-31 00:12:52",
                    "dependencies": [
                        "mdpopups"
                    ]
                },
                {
                    "platforms": [
                        "*"
                    ],
                    "sublime_text": "*",
                    "version": "1.29.8",
                    "url": "https://radovid.eu/decipherlime/packages/DecipherLib-1.29.8.zip",
                    "date": "2024-12-31 06:41:30",
                    "dependencies": [
                        "mdpopups"
                    ]
                },
                {
                    "platforms": [
                        "*"
                    ],
                    "sublime_text": "*",
                    "version": "1.29.9",
                    "url": "https://radovid.eu/decipherlime/packages/DecipherLib-1.29.9.zip",
                    "date": "2024-12-31 12:55:56",
                    "dependencies": [
                        "mdpopups"
                    ]
                },
                {
                    "platforms": [
                        "*"
                    ],
                    "sublime_text": "*",
                    "version": "1.29.10",
                    "url": "https://radovid.eu/decipherlime/packages/DecipherLib-1.29.10.zip",
                    "date": "2024-12-31 15:16:10",
                    "dependencies": [
                        "mdpopups"
                    ]
                },
                {
                    "platforms": [
                        "*"
                    ],
                    "sublime_text": "*",
                    "version": "1.30.0",
                    "url": "https://radovid.eu/decipherlime/packages/DecipherLib-1.30.0.zip",
                    "date": "2025-01-11 12:11:39",
                    "dependencies": [
                        "mdpopups"
                    ]
                },
                {
                    "platforms": [
                        "*"
                    ],
                    "sublime_text": "*",
                    "version": "1.31.0",
                    "url": "https://radovid.eu/decipherlime/packages/DecipherLib-1.31.0.zip",
                    "date": "2025-03-01 00:15:53",
                    "dependencies": [
                        "mdpopups"
                    ]
                }
            ],
            "description": "Create and modify Decipher XML surveys with ease"
        },
        {
            "author": "Rado Videnov",
            "homepage": "https://radovid.eu/decipherlime/",
            "name": "DecipherXML",
            "releases": [
                {
                    "url": "https://radovid.eu/decipherlime/packages/DecipherXML-1.22.zip",
                    "platforms": [
                        "*"
                    ],
                    "version": "1.22",
                    "sublime_text": "*",
                    "dependencies": [
                        "mdpopups"
                    ],
                    "date": "2023-02-11 08:11:44"
                },
                {
                    "url": "https://radovid.eu/decipherlime/packages/DecipherXML-1.23.zip",
                    "platforms": [
                        "*"
                    ],
                    "version": "1.23",
                    "sublime_text": "*",
                    "dependencies": [
                        "mdpopups"
                    ],
                    "date": "2024-12-09 19:54:11:44"
                },
                {
                    "platforms": [
                        "*"
                    ],
                    "sublime_text": "*",
                    "version": "1.24",
                    "url": "https://radovid.eu/decipherlime/packages/DecipherXML-1.24.zip",
                    "date": "2025-01-11 11:24:01",
                    "dependencies": [
                        "mdpopups"
                    ]
                },
                {
                    "platforms": [
                        "*"
                    ],
                    "sublime_text": "*",
                    "version": "1.25",
                    "url": "https://radovid.eu/decipherlime/packages/DecipherXML-1.25.zip",
                    "date": "2025-03-01 00:15:19",
                    "dependencies": [
                        "mdpopups"
                    ]
                }
            ],
            "description": "XML syntax highlighter specialized for Decipher surveys"
        }
    ],
    "schema_version": "3.0.0"
}